{
  "name": "Pandora FMS",
  "id": "pandorafms-datasource",
  "type": "datasource",

  "metrics": true,
  "annotations": false,

  "info": {
    "description": "Pandora FMS datasource",
    "author": {
      "name": "Artica ST",
      "url": "https://pandorafms.com/"
    },
    "logos": {
      "small": "img/pandora_logo.png",
      "large": "img/pandora_logo.png"
    },
    "version": "1.0.0",
    "updated": "2019-11-25"
  }
}
